<svg width="512" height="321" viewBox="0 0 512 321" fill="none" xmlns="http://www.w3.org/2000/svg">
    <rect x="15.0197" y="18.976" width="481.961" height="282.021" fill="#387C95"/>
    <path d="M482.51 0H29.4902C10.7976 0 -3.4967 14.2943 -3.4967 32.9869V287.536C-3.4967 306.228 10.7976 320.522 29.4902 320.522H482.51C501.202 320.522 515.497 306.228 515.497 287.536V32.9869C515.497 14.2943 501.202 0 482.51 0ZM482.51 93.4628H478.661C446.774 93.4628 420.385 67.0733 420.385 35.186V32.9869H482.51V93.4628ZM387.398 285.886V287.536H124.602V285.886C124.602 235.306 83.9185 194.623 33.3386 194.623H29.4902V126.45H33.3386C83.9185 126.45 124.602 85.7659 124.602 35.186V32.9869H387.398V35.186C387.398 85.7659 428.082 126.45 478.661 126.45H482.51V194.623H478.661C428.082 194.623 387.398 235.306 387.398 285.886ZM29.4902 32.9869H91.6154V35.186C91.6154 67.0733 65.2259 93.4628 33.3386 93.4628H29.4902V32.9869ZM29.4902 227.609H33.3386C65.2259 227.609 91.6154 253.999 91.6154 285.886V287.536H29.4902V227.609ZM420.385 286.986V285.336C420.385 253.449 446.774 227.06 478.661 227.06H482.51V286.986H420.385Z" fill="url(#paint0_linear)"/>
    <path d="M256 53.3288C196.624 53.3288 148.793 101.16 148.793 160.536C148.793 219.912 196.624 267.743 256 267.743C315.376 267.743 363.207 219.912 363.207 160.536C363.207 101.16 315.376 53.3288 256 53.3288ZM256 234.757C215.316 234.757 181.78 201.22 181.78 160.536C181.78 119.852 215.316 86.3156 256 86.3156C296.684 86.3156 330.221 119.852 330.221 160.536C330.221 201.22 296.684 234.757 256 234.757Z" fill="url(#paint1_linear)"/>
    <path fill-rule="evenodd" clip-rule="evenodd" d="M222.326 115.438V203.251C222.326 208.222 226.355 212.251 231.326 212.251H281.957C286.219 212.251 289.674 208.796 289.674 204.534C289.674 200.272 286.219 196.817 281.957 196.817L250.388 196.817H236.357V181.383L236.357 115.438C236.357 111.564 233.216 108.423 229.341 108.423C225.467 108.423 222.326 111.564 222.326 115.438Z" fill="url(#paint2_linear)"/>
    <defs>
        <linearGradient id="paint0_linear" x1="256" y1="-0.274341" x2="256" y2="320.247" gradientUnits="userSpaceOnUse">
            <stop stop-color="#00EFD1"/>
            <stop offset="1" stop-color="#00ACEA"/>
        </linearGradient>
        <linearGradient id="paint1_linear" x1="256" y1="53.0555" x2="256" y2="267.47" gradientUnits="userSpaceOnUse">
            <stop stop-color="#00ACEA"/>
            <stop offset="1" stop-color="#00EFD1"/>
        </linearGradient>
        <linearGradient id="paint2_linear" x1="256" y1="108.423" x2="256" y2="212.251" gradientUnits="userSpaceOnUse">
            <stop stop-color="#00EFD1"/>
            <stop offset="1" stop-color="#00ACEA"/>
        </linearGradient>
    </defs>
</svg>